<?xml version="1.0" encoding="UTF-8" standalone="no"?>
<svg width="42px" height="42px" viewBox="0 0 42 42" version="1.1" xmlns="http://www.w3.org/2000/svg" xmlns:xlink="http://www.w3.org/1999/xlink" xmlns:sketch="http://www.bohemiancoding.com/sketch/ns">
    <!-- Generator: Sketch 3.0.4 (8053) - http://www.bohemiancoding.com/sketch -->
    <title>Baseball Bat</title>
    <desc>Created with Sketch.</desc>
    <defs></defs>
    <g id="Icons" stroke="none" stroke-width="1" fill="none" fill-rule="evenodd" sketch:type="MSPage">
        <g id="Sports-&amp;-Fitness" sketch:type="MSArtboardGroup" transform="translate(-679.000000, -79.000000)" fill="#231F1F">
            <g id="Baseball-Bat" sketch:type="MSLayerGroup" transform="translate(679.000000, 79.000000)">
                <path d="M0.29325,38.718125 C-0.09775,38.328125 -0.09775,37.695125 0.29325,37.304125 C0.68325,36.913125 1.31625,36.913125 1.70725,37.304125 L4.70725,40.303125 C5.09725,40.694125 5.09725,41.327125 4.70725,41.718125 C4.51125,41.913125 4.25625,42.011125 4.00025,42.011125 C3.74425,42.011125 3.48825,41.913125 3.29325,41.718125 L0.29325,38.718125 L0.29325,38.718125 Z M3.43525,36.837125 C2.97925,36.525125 2.86225,35.903125 3.17425,35.447125 L18.36325,13.227125 C18.39825,13.176125 18.43825,13.128125 18.48225,13.085125 L30.40425,1.16212503 C31.95425,-0.38687497 34.47625,-0.38787497 36.02625,1.16212503 L40.83125,5.96712503 C42.38125,7.51712503 42.38125,10.039125 40.83125,11.589125 L28.90925,23.512125 C28.86525,23.555125 28.81825,23.595125 28.76725,23.630125 L6.56525,38.836125 C6.39225,38.954125 6.19525,39.011125 6.00125,39.011125 C5.68225,39.011125 5.36825,38.859125 5.17425,38.576125 C4.86225,38.120125 4.97925,37.498125 5.43525,37.186125 L15.93025,29.997125 C15.69925,29.981125 15.47025,29.895125 15.29325,29.718125 L12.29325,26.718125 C12.11125,26.536125 12.02325,26.302125 12.01025,26.065125 L4.82525,36.575125 C4.51325,37.031125 3.89225,37.147125 3.43525,36.837125 L3.43525,36.837125 Z M12.69025,25.071125 C13.03625,24.957125 13.43125,25.028125 13.70725,25.303125 L16.70725,28.304125 C16.97825,28.575125 17.04825,28.961125 16.94325,29.304125 L27.56025,22.032125 L39.41725,10.175125 C40.18725,9.40512503 40.18725,8.15212503 39.41725,7.38112503 L34.61225,2.57612503 C33.86525,1.83012503 32.56425,1.82912503 31.81825,2.57612503 L19.96225,14.433125 L12.69025,25.071125 L12.69025,25.071125 Z" sketch:type="MSShapeGroup"></path>
            </g>
        </g>
    </g>
</svg>