<?xml version="1.0" encoding="UTF-8" standalone="no"?>
<svg width="42px" height="49px" viewBox="0 0 42 49" version="1.1" xmlns="http://www.w3.org/2000/svg" xmlns:xlink="http://www.w3.org/1999/xlink" xmlns:sketch="http://www.bohemiancoding.com/sketch/ns">
    <!-- Generator: Sketch 3.0.4 (8053) - http://www.bohemiancoding.com/sketch -->
    <title>Bicycle Jersey</title>
    <desc>Created with Sketch.</desc>
    <defs></defs>
    <g id="Icons" stroke="none" stroke-width="1" fill="none" fill-rule="evenodd" sketch:type="MSPage">
        <g id="Sports-&amp;-Fitness" sketch:type="MSArtboardGroup" transform="translate(-1036.000000, -234.000000)" fill="#231F1F">
            <g id="Bicycle-Jersey" sketch:type="MSLayerGroup" transform="translate(1036.000000, 234.000000)">
                <path d="M0,13 L0,25 C0,26.71 1.935,28 4.5,28 C5.946,28 7.191,27.59 8.003,26.926 C8.28,27.716 8.613,28.483 9,29.219 L9,44 C9,47.282 15.037,49 21,49 C26.964,49 33,47.282 33,44 L33,29.219 C33.387,28.483 33.72,27.716 33.997,26.926 C34.809,27.59 36.054,28 37.5,28 C40.065,28 42,26.71 42,25 L42,13 C42,9.455 36.537,6.523 28,5.433 L28,3 C28,0.927 24.484,0 21,0 C17.516,0 14,0.927 14,3 L14,5.433 C5.463,6.523 0,9.455 0,13 L0,13 Z M25.898,3 C25.435,3.369 23.773,4 21,4 C18.227,4 16.566,3.369 16.102,3 C16.566,2.631 18.227,2 21,2 C23.773,2 25.435,2.631 25.898,3 L25.898,3 Z M2,13 C2,10.943 6.595,8.252 15.109,7.316 C15.616,7.26 16,6.831 16,6.322 L16,5.196 C17.09,5.641 18.514,5.894 20,5.971 L20,25 C20,25.552 20.448,26 21,26 C21.552,26 22,25.552 22,25 L22,5.971 C23.486,5.894 24.91,5.641 26,5.196 L26,6.322 C26,6.831 26.384,7.26 26.891,7.316 C35.405,8.252 40,10.943 40,13 L40,25 C40,25.29 39.124,26 37.5,26 C35.876,26 35,25.29 35,25 L35,21 C35,20.447 34.552,20 34,20 C33.448,20 33,20.447 33,21 C33,23.647 32.351,26.237 31.122,28.489 C31.042,28.636 31,28.801 31,28.968 L31,44 C31,45.194 27.012,47 21,47 C14.988,47 11,45.194 11,44 L11,28.968 C11,28.801 10.958,28.636 10.878,28.49 C9.65,26.236 9,23.646 9,21 C9,20.447 8.552,20 8,20 C7.448,20 7,20.447 7,21 L7,25 C7,25.29 6.124,26 4.5,26 C2.876,26 2,25.29 2,25 L2,13 L2,13 Z" sketch:type="MSShapeGroup"></path>
            </g>
        </g>
    </g>
</svg>