<?xml version="1.0" encoding="UTF-8" standalone="no"?>
<svg width="48px" height="33px" viewBox="0 0 48 33" version="1.1" xmlns="http://www.w3.org/2000/svg" xmlns:xlink="http://www.w3.org/1999/xlink" xmlns:sketch="http://www.bohemiancoding.com/sketch/ns">
    <!-- Generator: Sketch 3.0.4 (8053) - http://www.bohemiancoding.com/sketch -->
    <title>Bike</title>
    <desc>Created with Sketch.</desc>
    <defs></defs>
    <g id="Icons" stroke="none" stroke-width="1" fill="none" fill-rule="evenodd" sketch:type="MSPage">
        <g id="Sports-&amp;-Fitness" sketch:type="MSArtboardGroup" transform="translate(-1153.000000, -242.000000)" fill="#231F1F">
            <g id="Bike" sketch:type="MSLayerGroup" transform="translate(1153.000000, 242.000000)">
                <path d="M28,23 C28,28.514 32.486,33 38,33 C43.514,33 48,28.514 48,23 C48,17.485 43.514,13 38,13 C36.642,13 35.347,13.274 34.165,13.767 L32.674,11 L39,11 C39.553,11 40,10.552 40,10 C40,9.447 39.553,9 39,9 L17.503,9 L13.685,2 L17,2 C17.553,2 18,1.552 18,1 C18,0.447 17.553,0 17,0 L12.019,0 L11.98,0 L10,0 C9.448,0 9,0.447 9,1 C9,1.552 9.448,2 10,2 L11.407,2 L15.818,10.087 L13.836,13.767 C12.654,13.274 11.359,13 10,13 C4.486,13 0,17.485 0,23 C0,28.514 4.486,33 10,33 C15.177,33 19.446,29.046 19.95,24 L24,24 C24.09,24 24.177,23.987 24.261,23.965 C24.273,23.961 24.284,23.954 24.296,23.95 C24.367,23.928 24.436,23.902 24.5,23.865 C24.527,23.85 24.548,23.827 24.573,23.81 C24.62,23.777 24.666,23.746 24.707,23.705 C24.731,23.681 24.749,23.65 24.771,23.623 C24.802,23.586 24.835,23.552 24.86,23.51 C24.864,23.504 24.865,23.497 24.869,23.49 C24.872,23.484 24.877,23.48 24.881,23.474 L31,12.109 L32.404,14.716 C29.749,16.516 28,19.557 28,23 L28,23 Z M10,31 C5.589,31 2,27.411 2,23 C2,18.589 5.589,15 10,15 C11.016,15 11.984,15.198 12.879,15.544 L9.12,22.526 C8.953,22.836 8.961,23.21 9.142,23.512 C9.322,23.815 9.648,24 10,24 L17.931,24 C17.436,27.94 14.072,31 10,31 L10,31 Z M14.639,16.494 C16.413,17.763 17.646,19.733 17.931,22 L11.675,22 L14.639,16.494 L14.639,16.494 Z M19.95,22 C19.648,18.973 17.991,16.339 15.596,14.716 L16.961,12.182 L22.316,22 L19.95,22 L19.95,22 Z M23.995,20.901 L18.594,11 L29.326,11 L23.995,20.901 L23.995,20.901 Z M38,15 C42.411,15 46,18.589 46,23 C46,27.411 42.411,31 38,31 C33.589,31 30,27.411 30,23 C30,20.318 31.331,17.947 33.362,16.494 L37.12,23.474 C37.301,23.809 37.645,24 38.001,24 C38.161,24 38.324,23.962 38.474,23.88 C38.961,23.618 39.142,23.012 38.881,22.526 L35.122,15.544 C36.016,15.198 36.985,15 38,15 L38,15 Z" sketch:type="MSShapeGroup"></path>
            </g>
        </g>
    </g>
</svg>