<?xml version="1.0" encoding="UTF-8" standalone="no"?>
<svg width="32px" height="44px" viewBox="0 0 32 44" version="1.1" xmlns="http://www.w3.org/2000/svg" xmlns:xlink="http://www.w3.org/1999/xlink" xmlns:sketch="http://www.bohemiancoding.com/sketch/ns">
    <!-- Generator: Sketch 3.0.4 (8053) - http://www.bohemiancoding.com/sketch -->
    <title>Billiards Triangle</title>
    <desc>Created with Sketch.</desc>
    <defs></defs>
    <g id="Icons" stroke="none" stroke-width="1" fill="none" fill-rule="evenodd" sketch:type="MSPage">
        <g id="Sports-&amp;-Fitness" sketch:type="MSArtboardGroup" transform="translate(-564.000000, -398.000000)" fill="#231F1F">
            <g id="Billiards-Triangle" sketch:type="MSLayerGroup" transform="translate(564.000000, 398.000000)">
                <path d="M16,36 C13.794,36 12,37.795 12,40 C12,42.206 13.794,44 16,44 C18.207,44 20,42.206 20,40 C20,37.795 18.207,36 16,36 L16,36 Z M16,42 C14.898,42 14,41.104 14,40 C14,38.897 14.898,38 16,38 C17.103,38 18,38.897 18,40 C18,41.104 17.103,42 16,42 L16,42 Z M32,4 C32,1.795 30.207,0 28,0 C26.8,0 25.734,0.543 25,1.383 C24.267,0.543 23.201,0 22,0 C20.8,0 19.734,0.543 19,1.383 C18.267,0.543 17.201,0 16,0 C14.8,0 13.734,0.543 13,1.383 C12.267,0.543 11.201,0 10,0 C8.8,0 7.734,0.543 7,1.383 C6.267,0.543 5.201,0 4,0 C1.794,0 0,1.795 0,4 C0,5.998 1.476,7.643 3.392,7.939 C3.147,8.457 2.999,9.029 2.999,9.639 C2.999,11.637 4.476,13.283 6.393,13.578 C6.148,14.095 6,14.667 6,15.277 C6,17.273 7.474,18.917 9.388,19.215 C9.138,19.737 8.987,20.313 8.987,20.929 C8.987,22.937 10.477,24.587 12.407,24.871 C12.154,25.395 12,25.975 12,26.595 C12,28.801 13.794,30.595 16,30.595 C18.207,30.595 20,28.801 20,26.595 C20,25.974 19.846,25.392 19.592,24.867 C21.503,24.567 22.974,22.923 22.974,20.929 C22.974,20.314 22.823,19.738 22.574,19.216 C24.495,18.925 25.975,17.278 25.975,15.277 C25.975,14.667 25.827,14.094 25.582,13.576 C27.492,13.276 28.961,11.632 28.961,9.639 C28.961,9.03 28.814,8.46 28.57,7.943 C30.505,7.663 32,6.011 32,4 L32,4 Z M20.968,9.701 C20.934,10.775 20.055,11.639 18.974,11.639 C17.893,11.639 17.014,10.775 16.98,9.701 C16.98,9.68 16.987,9.66 16.987,9.639 C16.987,9.618 16.98,9.598 16.98,9.577 C17.014,8.503 17.893,7.639 18.974,7.639 C20.055,7.639 20.934,8.503 20.968,9.577 C20.967,9.598 20.961,9.618 20.961,9.639 C20.961,9.66 20.967,9.68 20.968,9.701 L20.968,9.701 Z M17.982,15.339 C17.948,16.413 17.069,17.277 15.988,17.277 C14.907,17.277 14.028,16.413 13.994,15.339 C13.994,15.318 14,15.298 14,15.277 C14,15.256 13.994,15.236 13.994,15.215 C14.028,14.141 14.907,13.277 15.988,13.277 C17.069,13.277 17.948,14.141 17.982,15.214 C17.981,15.236 17.975,15.256 17.975,15.277 C17.975,15.298 17.981,15.318 17.982,15.339 L17.982,15.339 Z M10.993,9.576 C11.027,8.503 11.905,7.639 12.987,7.639 C14.068,7.639 14.946,8.503 14.98,9.577 C14.98,9.598 14.974,9.618 14.974,9.639 C14.974,9.66 14.98,9.68 14.98,9.701 C14.946,10.775 14.068,11.639 12.987,11.639 C11.905,11.639 11.027,10.775 10.993,9.701 C10.993,9.68 10.999,9.66 10.999,9.639 C10.999,9.618 10.993,9.598 10.993,9.576 L10.993,9.576 Z M22,2 C23.103,2 24,2.897 24,4 C24,5.104 23.103,6 22,6 C20.898,6 20,5.104 20,4 C20,2.897 20.898,2 22,2 L22,2 Z M16,2 C17.103,2 18,2.897 18,4 C18,5.104 17.103,6 16,6 C14.898,6 14,5.104 14,4 C14,2.897 14.898,2 16,2 L16,2 Z M10,2 C11.103,2 12,2.897 12,4 C12,5.104 11.103,6 10,6 C8.898,6 8,5.104 8,4 C8,2.897 8.898,2 10,2 L10,2 Z M2,4 C2,2.897 2.898,2 4,2 C5.103,2 6,2.897 6,4 C6,5.104 5.103,6 4,6 C2.898,6 2,5.104 2,4 L2,4 Z M4.999,9.639 C4.999,8.536 5.897,7.639 6.999,7.639 C8.08,7.639 8.959,8.503 8.993,9.576 C8.993,9.598 8.987,9.618 8.987,9.639 C8.987,9.66 8.993,9.68 8.993,9.701 C8.959,10.775 8.08,11.639 6.999,11.639 C5.897,11.639 4.999,10.742 4.999,9.639 L4.999,9.639 Z M8,15.277 C8,14.174 8.898,13.277 10,13.277 C11.082,13.277 11.96,14.141 11.994,15.215 C11.994,15.236 11.988,15.256 11.988,15.277 C11.988,15.298 11.994,15.318 11.994,15.339 C11.96,16.413 11.082,17.277 10,17.277 C8.898,17.277 8,16.38 8,15.277 L8,15.277 Z M10.987,20.929 C10.987,19.826 11.884,18.929 12.987,18.929 C14.068,18.929 14.946,19.793 14.98,20.867 C14.98,20.888 14.974,20.908 14.974,20.929 C14.974,20.951 14.98,20.97 14.98,20.991 C14.946,22.065 14.068,22.929 12.987,22.929 C11.884,22.929 10.987,22.032 10.987,20.929 L10.987,20.929 Z M16,28.595 C14.898,28.595 14,27.699 14,26.595 C14,25.492 14.898,24.595 16,24.595 C17.103,24.595 18,25.492 18,26.595 C18,27.699 17.103,28.595 16,28.595 L16,28.595 Z M18.974,22.929 C17.893,22.929 17.014,22.065 16.98,20.991 C16.98,20.97 16.987,20.951 16.987,20.929 C16.987,20.908 16.98,20.888 16.98,20.867 C17.014,19.793 17.893,18.929 18.974,18.929 C20.076,18.929 20.974,19.826 20.974,20.929 C20.974,22.032 20.076,22.929 18.974,22.929 L18.974,22.929 Z M21.975,17.277 C20.894,17.277 20.015,16.413 19.982,15.339 C19.982,15.318 19.988,15.298 19.988,15.277 C19.988,15.256 19.982,15.236 19.982,15.214 C20.015,14.141 20.894,13.277 21.975,13.277 C23.078,13.277 23.975,14.174 23.975,15.277 C23.975,16.38 23.078,17.277 21.975,17.277 L21.975,17.277 Z M24.961,11.639 C23.88,11.639 23.001,10.775 22.968,9.701 C22.968,9.68 22.974,9.66 22.974,9.639 C22.974,9.618 22.968,9.598 22.968,9.577 C23.001,8.503 23.88,7.639 24.961,7.639 C26.064,7.639 26.961,8.536 26.961,9.639 C26.961,10.742 26.064,11.639 24.961,11.639 L24.961,11.639 Z M28,6 C26.898,6 26,5.104 26,4 C26,2.897 26.898,2 28,2 C29.103,2 30,2.897 30,4 C30,5.104 29.103,6 28,6 L28,6 Z" sketch:type="MSShapeGroup"></path>
            </g>
        </g>
    </g>
</svg>