<?xml version="1.0" encoding="UTF-8" standalone="no"?>
<svg width="24px" height="43px" viewBox="0 0 24 43" version="1.1" xmlns="http://www.w3.org/2000/svg" xmlns:xlink="http://www.w3.org/1999/xlink" xmlns:sketch="http://www.bohemiancoding.com/sketch/ns">
    <!-- Generator: Sketch 3.0.4 (8053) - http://www.bohemiancoding.com/sketch -->
    <title>Field Goal</title>
    <desc>Created with Sketch.</desc>
    <defs></defs>
    <g id="Icons" stroke="none" stroke-width="1" fill="none" fill-rule="evenodd" sketch:type="MSPage">
        <g id="Sports-&amp;-Fitness" sketch:type="MSArtboardGroup" transform="translate(-209.000000, -719.000000)" fill="#231F1F">
            <g id="Field-Goal" sketch:type="MSLayerGroup" transform="translate(209.000000, 719.000000)">
                <path d="M17,18.131 C19.757,18.131 22,15.888 22,13.13 L22,12.972 C22.44,12.83 22.838,12.606 23.156,12.287 C24.534,10.91 24.227,8.444 22.457,6.674 C22.313,6.53 22.154,6.416 22,6.29 L22,1.131 C22,0.579 21.552,0.131 21,0.131 C20.448,0.131 20,0.579 20,1.131 L20,5.25 C19.673,5.169 19.346,5.12 19.021,5.12 C18.167,5.12 17.394,5.424 16.844,5.974 C15.466,7.352 15.773,9.817 17.543,11.588 C18.263,12.307 19.124,12.795 20,13.011 L20,13.13 C20,14.785 18.654,16.131 17,16.131 L5,16.131 C3.345,16.131 2,14.785 2,13.13 L2,1.131 C2,0.579 1.552,0.131 1,0.131 C0.448,0.131 0,0.579 0,1.131 L0,13.13 C0,15.888 2.243,18.131 5,18.131 L10,18.131 L10,22.13 C8.345,22.13 7,23.476 7,25.13 L7,39.13 C7,40.785 8.345,42.13 10,42.13 L12,42.13 C13.654,42.13 15,40.785 15,39.13 L15,25.13 C15,23.476 13.654,22.13 12,22.13 L12,18.131 L17,18.131 L17,18.131 Z M18.258,7.388 C18.479,7.167 18.795,7.12 19.021,7.12 C19.681,7.12 20.436,7.482 21.043,8.088 C22.069,9.115 22.236,10.38 21.742,10.873 C21.521,11.095 21.205,11.141 20.979,11.141 C20.319,11.141 19.564,10.779 18.957,10.174 C17.931,9.147 17.764,7.881 18.258,7.388 L18.258,7.388 Z M13,25.13 L13,39.13 C13,39.682 12.551,40.13 12,40.13 L10,40.13 C9.448,40.13 9,39.682 9,39.13 L9,25.13 C9,24.579 9.448,24.13 10,24.13 L12,24.13 C12.551,24.13 13,24.579 13,25.13 L13,25.13 Z" sketch:type="MSShapeGroup"></path>
            </g>
        </g>
    </g>
</svg>