<?xml version="1.0" encoding="UTF-8" standalone="no"?>
<svg width="41px" height="38px" viewBox="0 0 41 38" version="1.1" xmlns="http://www.w3.org/2000/svg" xmlns:xlink="http://www.w3.org/1999/xlink" xmlns:sketch="http://www.bohemiancoding.com/sketch/ns">
    <!-- Generator: Sketch 3.0.4 (8053) - http://www.bohemiancoding.com/sketch -->
    <title>Protein</title>
    <desc>Created with Sketch.</desc>
    <defs></defs>
    <g id="Icons" stroke="none" stroke-width="1" fill="none" fill-rule="evenodd" sketch:type="MSPage">
        <g id="Sports-&amp;-Fitness" sketch:type="MSArtboardGroup" transform="translate(-678.000000, -1201.000000)" fill="#231F1F">
            <g id="Protein" sketch:type="MSLayerGroup" transform="translate(679.000000, 1201.000000)">
                <path d="M23.1645893,36.964 C23.8325893,37.632 24.7215893,38 25.6665893,38 C26.6115893,38 27.5005893,37.632 28.1685893,36.964 C28.8615893,36.271 29.2145893,35.341 29.2015893,34.41 L29.2565893,34.41 C30.2015893,34.41 31.0905893,34.042 31.7585893,33.374 C33.1385893,31.994 33.1385893,29.75 31.7585893,28.37 C30.7995893,27.412 29.3145893,27.089 28.0595893,27.542 L25.3215893,24.806 C25.5075893,23.145 25.1215893,21.416 24.2165893,19.856 C24.4045893,16.15 22.8115893,12.243 19.9115893,9.344 C17.1615893,6.593 13.5475893,5.016 9.99658933,5.016 C7.15858933,5.016 4.56758933,6.043 2.70258933,7.908 C0.571589334,10.039 -0.437410666,13.022 -0.139410666,16.306 C0.152589334,19.522 1.67258933,22.652 4.13858933,25.117 C7.03858933,28.018 10.9115893,29.604 14.6495893,29.422 C16.1925893,30.318 17.9335893,30.714 19.6005893,30.528 L22.3375893,33.265 C21.8845893,34.529 22.1835893,35.983 23.1645893,36.964 L23.1645893,36.964 Z M15.4325893,27.558 C15.2495893,27.443 15.0345893,27.389 14.8195893,27.406 C11.5725893,27.666 8.12858933,26.28 5.55258933,23.703 C3.41658933,21.568 2.10258933,18.876 1.85258933,16.125 C1.60858933,13.443 2.41258933,11.027 4.11658933,9.323 C5.60458933,7.835 7.69258933,7.016 9.99658933,7.016 C13.0215893,7.016 16.1195893,8.38 18.4975893,10.758 C21.0735893,13.334 22.4585893,16.799 22.2005893,20.026 C22.1845893,20.24 22.2365893,20.455 22.3525893,20.638 C23.1375893,21.885 23.4615893,23.322 23.3035893,24.642 L19.4355893,28.509 C18.1175893,28.668 16.6805893,28.347 15.4325893,27.558 L15.4325893,27.558 Z M21.3365893,29.436 L24.2305893,26.543 L27.1495893,29.461 C27.4865893,29.798 28.0145893,29.849 28.4085893,29.588 C28.9995893,29.198 29.8395893,29.28 30.3445893,29.784 C30.9435893,30.384 30.9435893,31.361 30.3445893,31.96 C29.8395893,32.464 28.9995893,32.547 28.4085893,32.157 C28.0145893,31.896 27.4865893,31.947 27.1495893,32.283 L27.0775893,32.356 C26.7415893,32.692 26.6885893,33.218 26.9505893,33.614 C27.3525893,34.221 27.2695893,35.034 26.7545893,35.55 C26.1725893,36.13 25.1605893,36.13 24.5785893,35.55 C24.0645893,35.034 23.9805893,34.221 24.3825893,33.616 C24.6465893,33.219 24.5935893,32.692 24.2565893,32.356 L21.3365893,29.436 L21.3365893,29.436 Z M35.8575893,14.808 C37.2695893,14.421 39.0245893,13.94 39.6905893,11.602 C40.2825893,9.52 39.8515893,7.115 39.8045893,6.867 C39.8685893,5.957 39.6145893,4.989 39.0455893,4.118 C38.1255893,2.706 36.0295893,0.885 31.2745893,0.224 C26.1455893,-0.494 19.5745893,0.804 15.2965893,3.369 C14.8225893,3.654 14.6695893,4.268 14.9535893,4.741 C15.2375893,5.215 15.8515893,5.368 16.3255893,5.084 C20.2475893,2.733 26.2815893,1.549 30.9985893,2.204 C35.2205893,2.791 36.8035893,4.34 37.3705893,5.21 C37.7775893,5.834 37.9225893,6.505 37.7675893,7.05 C37.4245893,8.253 36.7715893,8.479 35.3295893,8.874 C33.2175893,9.453 30.3235893,10.246 29.3895893,16.334 C29.0875893,18.295 28.1095893,19.865 26.5615893,20.87 C26.0985893,21.172 25.9665893,21.791 26.2675893,22.254 C26.4595893,22.549 26.7795893,22.709 27.1065893,22.709 C27.2935893,22.709 27.4825893,22.657 27.6505893,22.548 C28.2225893,22.177 28.7275893,21.743 29.1775893,21.264 C28.8585893,22.383 28.3015893,23.347 27.4955893,24.127 C27.0985893,24.512 27.0885893,25.145 27.4725893,25.541 C27.6685893,25.744 27.9295893,25.846 28.1905893,25.846 C28.4415893,25.846 28.6915893,25.752 28.8865893,25.565 C30.2295893,24.265 31.0635893,22.608 31.3655893,20.643 C32.1045893,15.837 33.9275893,15.337 35.8575893,14.808 L35.8575893,14.808 Z M31.7985893,14.667 C32.6885893,11.683 34.2345893,11.248 35.8575893,10.803 C36.5305893,10.619 37.2795893,10.406 37.9535893,9.988 C37.9185893,10.348 37.8655893,10.711 37.7675893,11.055 C37.4245893,12.258 36.7715893,12.483 35.3295893,12.879 C34.2345893,13.179 32.9315893,13.544 31.7985893,14.667 L31.7985893,14.667 Z" sketch:type="MSShapeGroup"></path>
            </g>
        </g>
    </g>
</svg>