
<?xml version='1.0' encoding='UTF-8'?>
<!DOCTYPE html PUBLIC '-//W3C//DTD XHTML 1.0 Transitional//EN' 'http://www.w3.org/TR/xhtml1/DTD/xhtml1-transitional.dtd'>
<html xmlns='http://www.w3.org/1999/xhtml' xml:lang='ru'>
<head>
<meta name='viewport' content='width=device-width' />
<meta http-equiv='Content-Type' content='text/html; charset=utf-8' />
<style type='text/css'>
body {
color: #000000;
word-wrap:break-word;
margin: 1px auto;
font: 12px Tahoma, Arial;
max-width: 360px;
margin: auto;
background: #E4E4E4;
}


.logo {
	
border:1px solid #89a9ab;
border-radius: 1px;
}

.logo img.log
{
float:center;
max-width:100%;

}


.title {
	
	background: #E4E4E4;
	text-align: center;
	border-left:1px solid #89a9ab;
	border-right:1px solid #89a9ab;
	border-top:0px solid #89a9ab;
	border-bottom:1px solid #89a9ab;
	padding: 2px;
}

.block{
margin-top: 2px;
background: #E4E4E4;
border: 1px solid #89a9ab;
color: #000000;
text-align:center;
padding:2px;
padding-left: 5px;
background:url(/images/r.gif);
}
.block a { color:#0000cc;}
.block a:hover { color:#0066cc; }

.banner {
margin-top: 1px;
background: #E4E4E4;
border: 1px solid #89a9ab;
color: #000000;
text-align:left;
padding:2px;
padding-left: 5px;
background:url(/images/r.gif);
}

.kat {
margin-top: 1px;
background: #E4E4E4;
border: 1px solid #89a9ab;
color: #000000;
text-align:left;
padding:2px;
padding-left: 5px;
background:url(/images/r.gif);
}
.kat a { color:#0000cc; }
.kat a:hover { color:#0066cc; }

.kat1_1 {
float: left;
max-width: 27px;
height: 18px;
margin: 1px 1px;
border: 0px solid #89a9ab;
position: relative;
display:inline;
}

.kat1_2 {
float: left;
width: 5px;
height: 18px;
margin: 1px 1px;
border: 0px solid #89a9ab;
position: relative;
display:inline;
}

.kat1_3 {
float: left;
width: 16px;
height: 18px;
margin: 1px 1px;
border: 0px solid #89a9ab;
position: relative;
display:inline;
}

.kat1_4 {
float: left;
width: 170px;
height: 18px;
margin: 2px 1px;
border: 0px solid #89a9ab;
position: relative;
display:inline;
}

.kat1_5 {
float: right;
width: 95px;
height: 18px;
margin: 2px 1px;
text-align: right;
border: 0px solid #89a9ab;
position: relative;
display:inline;
}

.kat1_6 {
float: right;
width: 20px;
height: 18px;
margin: 0px 1px;
border: 0px solid #89a9ab;
position: relative;
display:inline;
}

.kat1_7 {
float: right;

margin: 0px 1px;
border: 0px solid #89a9ab;
position: relative;
display:inline;
}



.kat2 {
margin-top: 0px;
background: #E4E4E4;
border: 1px solid #89a9ab;
color: #000000;
text-align:left;
padding:2px;
padding-left: 5px;
background:url(/images/r.gif);
}




.numer {  
	height: 18px;
	margin-top: 2px;   
    color: #000000;
    background: #d1dbdc;
    padding: 1px;
    box-shadow: inset 0 -7px 7px rgba(0, 0, 0, 0.32);
    border: 1px solid #777582;
} 	
	
.inform{
position:relative;
top:-1px;
    float: right;
 } 	
	
.favicon{
position:relative;
float: left;
down:2-px;
     
} 

.box {
margin-top: 2px;
background: #E4E4E4;
border: 1px solid #89a9ab;
color: #000000;
text-align:left;
padding:2px;
padding-left: 5px;
background:url(/images/r.gif);
background-repeat: repeat-x;
}

.box img.tizer {
	float:left;
	margin-right:7px;
	border:1px solid #89a9ab;
	border-radius: 5px
}

.box a { color:#0000cc; }
.box a:hover { color:#0066cc; }

.reklama {
	margin-top: 2px;
	background: #E4E4E4;
	text-align: left;
	border: 1px solid #89a9ab;
	padding: 2px;
	text-shadow:0px 0px 1px #555555; 
	
	}
.reklama a {
    color: #0066cc; /* Цвет обычной ссылки */ 
    text-decoration: none;
	padding: 2px
	}
.reklama a:hover {
    text-decoration: none; /* Убираем подчеркивание */
    color: #e24486; /* Цвет ссылки при наведении на нее курсора мыши */  
     /* Цвет фона */
   }

	
	

.rektit{    display: inline-block;
    float: right;
    margin-top: 3px;
	margin-right: 3px;
	background: #a9d8ed;
    padding: 2px;
    font-size: 10px;
    border-radius:  6px;
	
	
    border:inset 3px #218ceb;
-moz-border-radius: 3px;
-webkit-border-radius: 3px;
border-radius: 4px;
}
.rektit a { color:#298feb; }
.rektit a:hover { color:#cf47b7; }
.rektit a { 
    text-decoration: none; 
   }
.blokinfo {
  margin-top: 1px;
background: #E4E4E4;
border: 1px solid #89a9ab;
color: #000000;
text-align:left;
padding:2px;
padding-left: 5px;
padding-top: -15px;
background:url(/images/r2.gif);
}
.kat a { color:#0000cc; }
.kat a:hover { color:#0066cc; } 


 .screen {
 position:relative;
  display: inline-block;
   
bottom:15px;   
	background: #E4E4E4;
	text-align: left;
	
	border: 2px solid #89a9ab;
	padding: 2px;
	}
 
 .screen img.scrren {
  position:relative;
 

	}
 
.teg {
position:relative;

float: center;
bottom:-30px;
right:0px;

}

.linia {
    border: none; /* Убираем границу */
    background-color: #89a9ab; /* Цвет линии */
    color: #89a9ab; /* Цвет линии для IE6-7 */
    height: 1px; /* Толщина линии */
   }
   
   
 .favinfo {
bottom:-2px;
width: 16px;
height: 18px;
margin: 1px 1px;
border: 0px solid #89a9ab;
position: relative;
display:inline;
}  
   

 .button{ text-align:center; 
 float: right;
  margin-top: 3px;
	margin-right: 3px;
 display: inline-block;
 padding:2px 1px; 
 border:solid 1px #007db3; 
 -webkit-border-radius:4px;
 -moz-border-radius:4px; 
 border-radius: 4px; 
 font:11px Arial, Helvetica, sans-serif; 
 font-weight:bold; 
 color:#ffffff; 
 background-color:#87aaf5; 
 background-image: -moz-linear-gradient(top, #87aaf5 0%, #1982A5 100%); 
 background-image: -webkit-linear-gradient(top, #87aaf5 0%, #1982A5 100%); 
 background-image: -o-linear-gradient(top, #87aaf5 0%, #1982A5 100%); 
 background-image: -ms-linear-gradient(top, #87aaf5 0% ,#1982A5 100%); 
 filter: progid:DXImageTransform.Microsoft.gradient( startColorstr='#1982A5', endColorstr='#1982A5',GradientType=0 ); 
 background-image: linear-gradient(top, #87aaf5 0% ,#1982A5 100%);   
 -webkit-box-shadow:2px 3px 3px #bababa, inset 0px 0px 6px #2f1b94; 
 -moz-box-shadow: 2px 3px 3px #bababa,  inset 0px 0px 6px #2f1b94;  
 box-shadow:2px 3px 3px #bababa, inset 0px 0px 6px #2f1b94;  
 opacity:0.84; 
 -ms-filter: progid:DXImageTransform.Microsoft.Alpha(Opacity=84); 
 filter: alpha(opacity=84); 
  }.button:hover{
 padding:6px 7px; 
 border:inset 1px #007db3; 
 -webkit-border-radius:4px;
 -moz-border-radius:4px; 
 border-radius: 4px; 
 font:12px Arial, Helvetica, sans-serif; 
 font-weight:bold; 
 color:#ffffff; 
 background-color:#87aaf5; 
 background-image: -moz-linear-gradient(top, #87aaf5 0%, #1982A5 100%); 
 background-image: -webkit-linear-gradient(top, #87aaf5 0%, #1982A5 100%); 
 background-image: -o-linear-gradient(top, #87aaf5 0%, #1982A5 100%); 
 background-image: -ms-linear-gradient(top, #87aaf5 0% ,#1982A5 100%); 
 filter: progid:DXImageTransform.Microsoft.gradient( startColorstr='#1982A5', endColorstr='#1982A5',GradientType=0 ); 
 background-image: linear-gradient(top, #87aaf5 0% ,#1982A5 100%);   
 -webkit-box-shadow:2px 3px 3px #bababa, inset 0px 0px 6px #2f1b94; 
 -moz-box-shadow: 2px 3px 3px #bababa,  inset 0px 0px 6px #2f1b94;  
 box-shadow:2px 3px 3px #bababa, inset 0px 0px 6px #2f1b94;  
 opacity:0.89; 
 -ms-filter: progid:DXImageTransform.Microsoft.Alpha(Opacity=89); 
 filter: alpha(opacity=89); 
 }.button:active{
 padding:6px 7px; 
 border:solid 1px #005072; 
 -webkit-border-radius:4px;
 -moz-border-radius:4px; 
 border-radius: 4px; 
 font:12px Arial, Helvetica, sans-serif; 
 font-weight:bold; 
 color:#8b4791; 
 background-color:#87aaf5; 
 background-image: -moz-linear-gradient(top, #87aaf5 0%, #1982A5 100%); 
 background-image: -webkit-linear-gradient(top, #87aaf5 0%, #1982A5 100%); 
 background-image: -o-linear-gradient(top, #87aaf5 0%, #1982A5 100%); 
 background-image: -ms-linear-gradient(top, #87aaf5 0% ,#1982A5 100%); 
 filter: progid:DXImageTransform.Microsoft.gradient( startColorstr='#1982A5', endColorstr='#1982A5',GradientType=0 ); 

 background-image: linear-gradient(top, #87aaf5 0% ,#1982A5 100%);   
 -webkit-box-shadow:2px 3px 3px #bababa, inset 0px 0px 6px #2f1b94; 
 -moz-box-shadow: 2px 3px 3px #bababa,  inset 0px 0px 6px #2f1b94;  
 box-shadow:2px 3px 3px #bababa, inset 0px 0px 6px #2f1b94;  
  
 text-shadow: 0px 1px 0px #bababa; 
 filter: dropshadow(color=#bababa, offx=0, offy=1);}
 }
.button a { color:#ffffff; }
.button a:hover { color:#ffffff; }
.button a { 
    text-decoration: none; 
   }
   
.line { 
   #indented ul{ margin: 20px 0; padding: 0; list-style: none; } #indented ul li { border-top: 1px solid #333; border-bottom: 1px solid #111; } #indented ul li:first-child {border-top: none;} #indented ul li:last-child {border-bottom: none;} #indented ul li a { padding: 10px; display: block; color: #fff; text-decoration: none; } #indented ul li a:hover {background: #111;}
}



</style>
<title>{keyword}</title><meta name="description" content="{keyword}"><meta name="keywords" content="{keyword}" />
<body>
<div class='logo'> <img class='log' src='/tmp/css/logo.gif' alt='wap logo' /> <br/> </div> 
<div class="block"><h1><font color="red">{keyword}</font></h1> <br/>
 </div>
<div class='numer'>
		<div class='kat1_1'><center>1.</center></div>
		<div class='kat1_3'><img src='http://www.google.com/s2/favicons?domain=http://rukat.ws'/></div>

		<div class='kat1_4'> <font color=>{keyword}</font> </div>

		<div class='kat1_6'> <img src='/tmp/css/info.png' width='20px' height='20px' title='Информация о сайте'/> </div>
</div>
<div class='kat2'><br />
</div><div class='block'>
<b>Категории</b><br />
<b><b>WAPGLOB.US</b></b></div>
<div class="block"><br/>
</div>
</body></html>