
<!DOCTYPE HTML PUBLIC "-//W3C//DTD HTML 4.01 Transitional//EN">
<html>
<head>
<title>{keyword}</title></head><body bgcolor="#F0F0F0" link="#000000" text="#D00000">
<p align="left">
</p><h1 align="center" style="background-color: #008000">{keyword}</h1>
<p align="center">
 
 {manytext_bing}
<hr size="1"/>
<p align="left">&nbsp;
</p><p align="center"> <br/>
 <font color="#008000"><b><big>На главную</big></b></font> <br/>
 <img src="http://owap.su/5871.img" alt="owap.su" /> <img src="http://ruwap.mobi/3884.img" alt="ruwap.mobi" /> 
</p><p align="left" style="background-color: #009000">
<font color="#F0F0F0">
<!-- Rating@Mail.ru counter -->
 <div style="position:absolute;left:-10000px;">
<img src="//top-fwz1.mail.ru/counter?id=2579692;js=na" style="border:0;" height="1" width="1" alt="Рейтинг@Mail.ru" />
</div></noscript>
<!-- //Rating@Mail.ru counter -->
<!-- Rating@Mail.ru logo -->
 
<img src="//top-fwz1.mail.ru/counter?id=2579692;t=359;l=1" 
style="border:0;" height="18" width="88" alt="Рейтинг@Mail.ru" /> <!--/LiveInternet-->
 <img src="http://mobtop.ru/1649.gif" alt="MobTop.Ru - рейтинг мобильных сайтов"/> 
 <br/><small>(c) X-16.RU</small></font>
</p>
</body>
</html>