<?xml version="1.0" encoding="UTF-8" standalone="no"?>
<svg width="50px" height="23px" viewBox="0 0 50 23" version="1.1" xmlns="http://www.w3.org/2000/svg" xmlns:xlink="http://www.w3.org/1999/xlink" xmlns:sketch="http://www.bohemiancoding.com/sketch/ns">
    <!-- Generator: Sketch 3.0.4 (8053) - http://www.bohemiancoding.com/sketch -->
    <title>Balance Beam</title>
    <desc>Created with Sketch.</desc>
    <defs></defs>
    <g id="Icons" stroke="none" stroke-width="1" fill="none" fill-rule="evenodd" sketch:type="MSPage">
        <g id="Sports-&amp;-Fitness" sketch:type="MSArtboardGroup" transform="translate(-315.000000, -90.000000)" fill="#231F1F">
            <g id="Balance-Beam" sketch:type="MSLayerGroup" transform="translate(315.000000, 90.000000)">
                <path d="M43.768,10.641 L39.302,16 L43.768,21.36 C44.122,21.784 44.065,22.415 43.64,22.768 C43.453,22.924 43.226,23 43.001,23 C42.714,23 42.43,22.878 42.232,22.64 L37.235,16.644 C37.233,16.641 37.23,16.638 37.227,16.635 L32.232,10.641 C31.879,10.216 31.936,9.586 32.36,9.233 C32.784,8.879 33.414,8.936 33.768,9.361 L38,14.438 L42.232,9.361 C42.585,8.937 43.215,8.879 43.64,9.233 C44.065,9.586 44.122,10.216 43.768,10.641 L43.768,10.641 Z M16.232,9.361 L12,14.438 L7.768,9.361 C7.414,8.936 6.784,8.879 6.36,9.233 C5.936,9.586 5.878,10.216 6.232,10.641 L10.698,16 L6.232,21.36 C5.878,21.784 5.936,22.415 6.36,22.768 C6.547,22.924 6.774,23 7,23 C7.286,23 7.57,22.878 7.768,22.64 L12.765,16.644 C12.768,16.641 12.771,16.638 12.773,16.635 L17.768,10.641 C18.122,10.216 18.065,9.586 17.64,9.233 C17.216,8.879 16.585,8.937 16.232,9.361 L16.232,9.361 Z M50,3.001 L50,4 C50,5.654 48.654,7 47,7 L3,7 C1.346,7 0,5.654 0,4 L0,3.001 C0,1.346 1.346,0 3,0 L47,0 C48.654,0 50,1.346 50,3.001 L50,3.001 Z M48,3.001 C48,2.449 47.551,2 47,2 L3,2 C2.449,2 2,2.449 2,3.001 L2,4 C2,4.551 2.449,5 3,5 L47,5 C47.551,5 48,4.551 48,4 L48,3.001 L48,3.001 Z" sketch:type="MSShapeGroup"></path>
            </g>
        </g>
    </g>
</svg>