<?xml version="1.0" encoding="UTF-8" standalone="no"?>
<svg width="43px" height="22px" viewBox="0 0 43 22" version="1.1" xmlns="http://www.w3.org/2000/svg" xmlns:xlink="http://www.w3.org/1999/xlink" xmlns:sketch="http://www.bohemiancoding.com/sketch/ns">
    <!-- Generator: Sketch 3.0.4 (8053) - http://www.bohemiancoding.com/sketch -->
    <title>Golf Hole</title>
    <desc>Created with Sketch.</desc>
    <defs></defs>
    <g id="Icons" stroke="none" stroke-width="1" fill="none" fill-rule="evenodd" sketch:type="MSPage">
        <g id="Sports-&amp;-Fitness" sketch:type="MSArtboardGroup" transform="translate(-318.000000, -889.000000)" fill="#231F1F">
            <g id="Golf-Hole" sketch:type="MSLayerGroup" transform="translate(318.000000, 889.000000)">
                <path d="M21.055,6.558 C19.344,2.701 15.485,0 11,0 C4.935,0 0,4.934 0,11 C0,17.065 4.935,22 11,22 C13.182,22 15.212,21.354 16.924,20.254 C19.658,21.349 23.147,22 27,22 C34.12,22 40.001,19.783 42.132,16.628 C42.166,16.586 42.197,16.545 42.224,16.499 C42.724,15.715 43,14.877 43,14 C43,9.513 35.973,6 27,6 C24.886,6 22.887,6.201 21.055,6.558 L21.055,6.558 Z M11,20 C6.038,20 2,15.963 2,11 C2,6.037 6.038,2 11,2 C15.963,2 20,6.037 20,11 C20,15.963 15.963,20 11,20 L11,20 Z M27,20 C23.818,20 21.014,19.526 18.762,18.786 C20.441,17.113 21.572,14.899 21.896,12.435 C23.493,12.156 25.216,12 27,12 C32.843,12 38.076,13.626 40.135,16.016 C38.007,18.436 32.27,20 27,20 L27,20 Z M41,14 C41,14.021 40.993,14.04 40.992,14.061 C38.249,11.585 32.954,10 27,10 C25.251,10 23.558,10.137 21.97,10.392 C21.934,9.736 21.843,9.096 21.696,8.475 C23.304,8.177 25.081,8 27,8 C33.622,8 41,10.464 41,14 L41,14 Z" sketch:type="MSShapeGroup"></path>
            </g>
        </g>
    </g>
</svg>