<?xml version="1.0" encoding="UTF-8" standalone="no"?>
<svg width="60px" height="36px" viewBox="0 0 60 36" version="1.1" xmlns="http://www.w3.org/2000/svg" xmlns:xlink="http://www.w3.org/1999/xlink" xmlns:sketch="http://www.bohemiancoding.com/sketch/ns">
    <!-- Generator: Sketch 3.0.4 (8053) - http://www.bohemiancoding.com/sketch -->
    <title>Kayak</title>
    <desc>Created with Sketch.</desc>
    <defs></defs>
    <g id="Icons" stroke="none" stroke-width="1" fill="none" fill-rule="evenodd" sketch:type="MSPage">
        <g id="Sports-&amp;-Fitness" sketch:type="MSArtboardGroup" transform="translate(-430.000000, -1042.000000)" fill="#231F1F">
            <g id="Kayak" sketch:type="MSLayerGroup" transform="translate(430.000000, 1042.000000)">
                <path d="M55.991,26 L45.993,26 C45.866,26 45.74,26.024 45.622,26.071 L40.623,28.071 C40.243,28.224 39.994,28.591 39.994,29 L39.994,30 L19.997,30 L19.997,29 C19.997,28.591 19.748,28.224 19.368,28.071 L14.369,26.071 C14.251,26.024 14.125,26 13.998,26 L3.999,26 C1.794,26 0,27.794 0,30 L0,32 C0,34.206 1.794,36 3.999,36 L13.998,36 C14.125,36 14.251,35.976 14.369,35.929 L19.368,33.929 C19.748,33.777 19.997,33.409 19.997,33 L19.997,32 L39.994,32 L39.994,33 C39.994,33.409 40.243,33.777 40.623,33.929 L45.622,35.929 C45.74,35.976 45.866,36 45.993,36 L55.991,36 C58.197,36 59.991,34.206 59.991,32 L59.991,30 C59.991,27.794 58.197,26 55.991,26 L55.991,26 Z M17.997,32.323 L13.805,34 L3.999,34 C2.897,34 2,33.103 2,32 L2,30 C2,28.898 2.897,28 3.999,28 L13.805,28 L17.997,29.677 L17.997,32.323 L17.997,32.323 Z M57.991,32 C57.991,33.103 57.094,34 55.991,34 L46.185,34 L41.993,32.323 L41.993,29.677 L46.185,28 L55.991,28 C57.094,28 57.991,28.898 57.991,30 L57.991,32 L57.991,32 Z M1.126,13.347 C4.428,15.949 13.471,22 26.081,22 C40.659,22 52.589,16.762 58.404,13.639 C59.379,13.116 59.985,12.105 59.985,11 C59.985,9.896 59.379,8.884 58.404,8.361 C52.588,5.238 40.656,0 26.081,0 C13.471,0 4.428,6.051 1.126,8.653 C0.404,9.222 -0.01,10.077 -0.01,11 C-0.01,11.923 0.404,12.778 1.126,13.347 L1.126,13.347 Z M2.364,10.224 C5.502,7.752 14.096,2 26.081,2 C40.218,2 51.808,7.09 57.459,10.123 C57.934,10.378 57.985,10.821 57.985,11 C57.985,11.179 57.934,11.622 57.459,11.877 C51.809,14.911 40.221,20 26.081,20 C14.096,20 5.502,14.249 2.364,11.776 C2.126,11.589 1.99,11.306 1.99,11 C1.99,10.694 2.126,10.411 2.364,10.224 Z M25.996,17 C30.481,17 36.994,14.663 36.994,11 C36.994,7.338 30.481,5 25.996,5 C19.679,5 18.997,9.196 18.997,11 C18.997,12.804 19.679,17 25.996,17 Z M25.996,7 C30.201,7 34.995,9.131 34.995,11 C34.995,12.869 30.201,15 25.996,15 C22.679,15 20.997,13.654 20.997,11 C20.997,8.346 22.679,7 25.996,7 Z" sketch:type="MSShapeGroup"></path>
            </g>
        </g>
    </g>
</svg>