<?xml version="1.0" encoding="UTF-8" standalone="no"?>
<svg width="38px" height="42px" viewBox="0 0 38 42" version="1.1" xmlns="http://www.w3.org/2000/svg" xmlns:xlink="http://www.w3.org/1999/xlink" xmlns:sketch="http://www.bohemiancoding.com/sketch/ns">
    <!-- Generator: Sketch 3.0.4 (8053) - http://www.bohemiancoding.com/sketch -->
    <title>Life Vest</title>
    <desc>Created with Sketch.</desc>
    <defs></defs>
    <g id="Icons" stroke="none" stroke-width="1" fill="none" fill-rule="evenodd" sketch:type="MSPage">
        <g id="Sports-&amp;-Fitness" sketch:type="MSArtboardGroup" transform="translate(-1041.000000, -1039.000000)" fill="#231F1F">
            <g id="Life-Vest" sketch:type="MSLayerGroup" transform="translate(1041.000000, 1039.000000)">
                <path d="M37.929,15.629 L31.929,0.629 C31.777,0.249 31.41,0 31.001,0 L25.001,0 C24.591,0 24.224,0.249 24.072,0.629 L23.114,3.023 C23.075,3.018 23.041,3 23.001,3 L15,3 C14.96,3 14.926,3.018 14.887,3.023 L13.929,0.629 C13.777,0.249 13.41,0 13.001,0 L7.001,0 C6.591,0 6.224,0.249 6.072,0.629 L0.072,15.629 C0.025,15.747 0,15.873 0,16 L0,39 C0,40.654 1.346,42 3,42 L35.001,42 C36.655,42 38.001,40.654 38.001,39 L38.001,16 C38.001,15.873 37.976,15.747 37.929,15.629 L37.929,15.629 Z M22.323,5 L19.001,13.308 L15.678,5 L22.323,5 L22.323,5 Z M2.001,39 L2.001,34 L13.001,34 C13.553,34 14.001,33.553 14.001,33 C14.001,32.447 13.553,32 13.001,32 L2.001,32 L2.001,25 L13.001,25 C13.553,25 14.001,24.552 14.001,24 C14.001,23.448 13.553,23 13.001,23 L2.001,23 L2.001,16.193 L7.677,2 L12.324,2 L18,16.194 L18,22 C16.896,22 16.001,22.896 16.001,24 C16.001,25.105 16.896,26 18,26 L18,31 C16.896,31 16.001,31.896 16.001,33 C16.001,34.105 16.896,35 18,35 L18,40 L3,40 C2.449,40 2.001,39.552 2.001,39 L2.001,39 Z M35.001,40 L20.001,40 L20.001,35 C21.105,35 22.001,34.105 22.001,33 C22.001,31.896 21.105,31 20.001,31 L20.001,26 C21.105,26 22.001,25.105 22.001,24 C22.001,22.896 21.105,22 20.001,22 L20.001,16.194 L25.677,2 L30.324,2 L36,16.193 L36,23 L25.001,23 C24.448,23 24,23.448 24,24 C24,24.552 24.448,25 25.001,25 L36,25 L36,32 L25.001,32 C24.448,32 24,32.447 24,33 C24,33.553 24.448,34 25.001,34 L36,34 L36,39 C36,39.552 35.552,40 35.001,40 L35.001,40 Z" sketch:type="MSShapeGroup"></path>
            </g>
        </g>
    </g>
</svg>