<?xml version="1.0" encoding="UTF-8" standalone="no"?>
<svg width="42px" height="36px" viewBox="0 0 42 36" version="1.1" xmlns="http://www.w3.org/2000/svg" xmlns:xlink="http://www.w3.org/1999/xlink" xmlns:sketch="http://www.bohemiancoding.com/sketch/ns">
    <!-- Generator: Sketch 3.0.4 (8053) - http://www.bohemiancoding.com/sketch -->
    <title>Medicine Ball</title>
    <desc>Created with Sketch.</desc>
    <defs></defs>
    <g id="Icons" stroke="none" stroke-width="1" fill="none" fill-rule="evenodd" sketch:type="MSPage">
        <g id="Sports-&amp;-Fitness" sketch:type="MSArtboardGroup" transform="translate(-199.000000, -1203.000000)" fill="#231F1F">
            <g id="Medicine-Ball" sketch:type="MSLayerGroup" transform="translate(199.000000, 1203.000000)">
                <path d="M5.869,27.72 C9.205,32.909 14.846,36 21,36 C27.154,36 32.795,32.909 36.131,27.72 C39.918,25.103 42,21.659 42,18 C42,14.342 39.918,10.897 36.131,8.28 C32.794,3.092 27.154,0 21,0 C14.846,0 9.206,3.092 5.869,8.28 C2.082,10.897 0,14.343 0,18 C0,21.659 2.082,25.103 5.869,27.72 L5.869,27.72 Z M7.162,9.819 C7.278,9.741 7.376,9.64 7.45,9.522 C10.404,4.811 15.469,2 21,2 C26.531,2 31.596,4.811 34.55,9.522 C34.624,9.64 34.722,9.741 34.838,9.819 C38.166,12.066 40,14.972 40,18 C40,21.029 38.167,23.935 34.838,26.181 C34.722,26.259 34.624,26.36 34.55,26.479 C31.597,31.189 26.532,34 21,34 C15.469,34 10.403,31.189 7.45,26.479 C7.376,26.36 7.278,26.259 7.162,26.181 C3.833,23.935 2,21.029 2,18 C2,14.972 3.833,12.066 7.162,9.819 L7.162,9.819 Z M9.026,24.997 C9.186,25.093 9.364,25.14 9.541,25.14 C9.792,25.14 10.04,25.046 10.231,24.864 C10.557,24.554 10.636,24.064 10.422,23.667 C9.492,21.933 9,19.974 9,18 C9,16.026 9.492,14.067 10.422,12.335 C10.636,11.938 10.557,11.448 10.231,11.138 C9.906,10.826 9.413,10.773 9.026,11.004 C5.832,12.925 4,15.475 4,18 C4,20.525 5.832,23.076 9.026,24.997 L9.026,24.997 Z M7.339,14.94 C7.115,15.942 7,16.97 7,18 C7,19.03 7.115,20.059 7.339,21.06 C6.475,20.055 6,18.997 6,18 C6,17.004 6.475,15.946 7.339,14.94 L7.339,14.94 Z M33,18 C33,19.975 32.508,21.934 31.578,23.667 C31.365,24.064 31.443,24.554 31.769,24.864 C31.96,25.046 32.208,25.14 32.459,25.14 C32.636,25.14 32.814,25.093 32.974,24.997 C36.168,23.076 38,20.525 38,18 C38,15.475 36.168,12.925 32.974,11.004 C32.587,10.772 32.095,10.825 31.769,11.138 C31.443,11.448 31.365,11.938 31.578,12.335 C32.508,14.066 33,16.025 33,18 L33,18 Z M34.66,14.94 C35.525,15.946 36,17.004 36,18 C36,18.997 35.525,20.055 34.66,21.06 C34.885,20.059 35,19.031 35,18 C35,16.97 34.885,15.942 34.66,14.94 L34.66,14.94 Z" sketch:type="MSShapeGroup"></path>
            </g>
        </g>
    </g>
</svg>