<?xml version="1.0" encoding="UTF-8" standalone="no"?>
<svg width="44px" height="34px" viewBox="0 0 44 34" version="1.1" xmlns="http://www.w3.org/2000/svg" xmlns:xlink="http://www.w3.org/1999/xlink" xmlns:sketch="http://www.bohemiancoding.com/sketch/ns">
    <!-- Generator: Sketch 3.0.4 (8053) - http://www.bohemiancoding.com/sketch -->
    <title>Pool</title>
    <desc>Created with Sketch.</desc>
    <defs></defs>
    <g id="Icons" stroke="none" stroke-width="1" fill="none" fill-rule="evenodd" sketch:type="MSPage">
        <g id="Sports-&amp;-Fitness" sketch:type="MSArtboardGroup" transform="translate(-557.000000, -1203.000000)" fill="#231F1F">
            <g id="Pool" sketch:type="MSLayerGroup" transform="translate(557.000000, 1203.000000)">
                <path d="M35.0077106,24 C34.4557106,24 34.0077106,23.553 34.0077106,23 L34.0077106,5 C34.0077106,2.243 36.2507106,0 39.0077106,0 C39.5607106,0 40.0077106,0.447 40.0077106,1 C40.0077106,1.553 39.5607106,2 39.0077106,2 C37.3537106,2 36.0077106,3.346 36.0077106,5 L36.0077106,23 C36.0077106,23.553 35.5607106,24 35.0077106,24 L35.0077106,24 Z M29.0077106,2 C29.5607106,2 30.0077106,1.553 30.0077106,1 C30.0077106,0.447 29.5607106,0 29.0077106,0 C26.2507106,0 24.0077106,2.243 24.0077106,5 L24.0077106,21 C24.0077106,21.553 24.4557106,22 25.0077106,22 C25.5607106,22 26.0077106,21.553 26.0077106,21 L26.0077106,19 L32.0077106,19 C32.5607106,19 33.0077106,18.553 33.0077106,18 C33.0077106,17.447 32.5607106,17 32.0077106,17 L26.0077106,17 L26.0077106,14 L32.0077106,14 C32.5607106,14 33.0077106,13.553 33.0077106,13 C33.0077106,12.447 32.5607106,12 32.0077106,12 L26.0077106,12 L26.0077106,9 L32.0077106,9 C32.5607106,9 33.0077106,8.553 33.0077106,8 C33.0077106,7.447 32.5607106,7 32.0077106,7 L26.0077106,7 L26.0077106,5 C26.0077106,3.346 27.3537106,2 29.0077106,2 L29.0077106,2 Z M42.4907106,24.13 C36.2377106,27.898 28.7717106,27.896 22.5187106,24.13 C15.6207106,19.974 7.38171061,19.974 0.48371061,24.13 C0.0107106102,24.415 -0.14128939,25.029 0.14371061,25.503 C0.42771061,25.976 1.04071061,26.128 1.51671061,25.843 C7.76871061,22.075 15.2337106,22.075 21.4877106,25.843 C24.9367106,27.921 28.7197106,28.96 32.5037106,28.96 C36.2887106,28.96 40.0727106,27.921 43.5217106,25.843 C43.9957106,25.558 44.1477106,24.943 43.8627106,24.471 C43.5777106,23.997 42.9617106,23.843 42.4907106,24.13 L42.4907106,24.13 Z M42.4907106,29.129 C36.2367106,32.896 28.7707106,32.896 22.5187106,29.129 C15.6207106,24.973 7.38271061,24.973 0.48471061,29.129 C0.0107106102,29.414 -0.14128939,30.028 0.14371061,30.501 C0.42771061,30.976 1.04371061,31.127 1.51571061,30.842 C7.76971061,27.074 15.2347106,27.076 21.4867106,30.842 C24.9367106,32.921 28.7197106,33.96 32.5037106,33.96 C36.2887106,33.959 40.0727106,32.92 43.5217106,30.842 C43.9957106,30.557 44.1477106,29.942 43.8627106,29.47 C43.5777106,28.994 42.9617106,28.843 42.4907106,29.129 L42.4907106,29.129 Z" sketch:type="MSShapeGroup"></path>
            </g>
        </g>
    </g>
</svg>