<?xml version="1.0" encoding="UTF-8" standalone="no"?>
<svg width="42px" height="29px" viewBox="0 0 42 29" version="1.1" xmlns="http://www.w3.org/2000/svg" xmlns:xlink="http://www.w3.org/1999/xlink" xmlns:sketch="http://www.bohemiancoding.com/sketch/ns">
    <!-- Generator: Sketch 3.0.4 (8053) - http://www.bohemiancoding.com/sketch -->
    <title>Whistle</title>
    <desc>Created with Sketch.</desc>
    <defs></defs>
    <g id="Icons" stroke="none" stroke-width="1" fill="none" fill-rule="evenodd" sketch:type="MSPage">
        <g id="Sports-&amp;-Fitness" sketch:type="MSArtboardGroup" transform="translate(-1159.000000, -1526.000000)" fill="#231F1F">
            <g id="Whistle" sketch:type="MSLayerGroup" transform="translate(1159.000000, 1526.000000)">
                <path d="M41.903,0.529 C41.729,0.203 41.391,0 41.022,0 L14.394,0 C11.485,0 8.767,0.856 6.491,2.32 L5.007,0.834 C3.897,-0.274 1.967,-0.273 0.858,0.835 C-0.286,1.98 -0.286,3.843 0.858,4.988 L2.31,6.441 C1.03,8.374 0.215,10.627 0.055,13.063 C-0.204,16.99 1.126,20.728 3.801,23.589 C6.439,26.41 10.165,28.028 14.023,28.028 C14.699,28.028 15.384,27.979 16.063,27.883 C22.193,27.015 27.18,21.901 27.92,15.724 C28.242,13.033 27.81,10.397 26.666,8.008 L37.022,8.008 C37.356,8.008 37.668,7.841 37.854,7.562 L41.854,1.556 C42.059,1.249 42.077,0.854 41.903,0.529 L41.903,0.529 Z M2.271,3.572 C1.907,3.208 1.907,2.615 2.271,2.251 C2.448,2.074 2.683,1.977 2.933,1.977 C3.182,1.977 3.416,2.074 3.593,2.25 L4.874,3.533 C4.401,3.941 3.952,4.374 3.537,4.839 L2.271,3.572 L2.271,3.572 Z M36.487,6.006 L24.966,6.006 C24.6,6.006 24.264,6.206 24.089,6.526 C23.913,6.847 23.927,7.239 24.124,7.547 C25.645,9.924 26.271,12.668 25.933,15.485 C25.3,20.777 21.03,25.157 15.782,25.901 C11.827,26.464 7.954,25.1 5.261,22.221 C2.968,19.769 1.828,16.564 2.051,13.195 C2.465,6.918 7.886,2.002 14.394,2.002 L39.153,2.002 L36.487,6.006 L36.487,6.006 Z M5.023,14.014 C5.023,18.981 9.06,23.023 14.023,23.023 C18.986,23.023 23.022,18.981 23.022,14.014 C23.022,9.046 18.986,5.005 14.023,5.005 C9.06,5.005 5.023,9.046 5.023,14.014 L5.023,14.014 Z M21.023,14.014 C21.023,17.877 17.882,21.021 14.023,21.021 C10.164,21.021 7.023,17.877 7.023,14.014 C7.023,10.15 10.164,7.007 14.023,7.007 C17.882,7.007 21.023,10.15 21.023,14.014 L21.023,14.014 Z" sketch:type="MSShapeGroup"></path>
            </g>
        </g>
    </g>
</svg>